numer_populacji;best;avg;worst
1;-3832392,2893526442;-4473575,440321605;-5306844,887312967
2;-3832392,2893526442;-4471092,54995292;-5208903,982007607
3;-3832392,2893526442;-4467084,12071633;-5187086,336328916
4;-3832392,2893526442;-4465110,418169188;-5153755,471001286
5;-3832392,2893526442;-4467587,372021065;-5062236,985227897
6;-3832392,2893526442;-4467644,037304927;-5062236,985227897
7;-3832392,2893526442;-4461318,364485498;-5062236,985227897
8;-3832392,2893526442;-4470256,347971219;-5062236,985227897
9;-3832392,2893526442;-4474522,026878447;-5062236,985227897
10;-3832392,2893526442;-4470175,420624011;-5062236,985227897
11;-3832392,2893526442;-4466931,093474871;-5062236,985227897
12;-3832392,2893526442;-4470736,0968995495;-5062236,985227897
13;-3832392,2893526442;-4478816,817260637;-5062236,985227897
14;-3832392,2893526442;-4478017,663006621;-5062236,985227897
15;-3832392,2893526442;-4478795,440891924;-5062236,985227897
16;-3832392,2893526442;-4477937,179046402;-5019690,14602191
17;-3832392,2893526442;-4470893,416567539;-5019690,14602191
18;-3832392,2893526442;-4481732,438176989;-5019690,14602191
19;-3832392,2893526442;-4484028,417568358;-5019690,14602191
20;-3832392,2893526442;-4487876,153518514;-5019690,14602191
21;-3832392,2893526442;-4482425,106955059;-5019690,14602191
22;-3832392,2893526442;-4494218,412269152;-5019690,14602191
23;-3832392,2893526442;-4498005,070061937;-5019690,14602191
24;-3832392,2893526442;-4510688,152085615;-5019690,14602191
25;-3832392,2893526442;-4516790,800458064;-5019690,14602191
26;-3832392,2893526442;-4517511,616072043;-5019690,14602191
27;-3832392,2893526442;-4531289,988837869;-5019690,14602191
28;-3832392,2893526442;-4519546,422730141;-5019690,14602191
29;-3832392,2893526442;-4530905,635494064;-5019690,14602191
30;-3832392,2893526442;-4533994,837266849;-5019690,14602191
31;-3832392,2893526442;-4523887,691900485;-5019690,14602191
32;-3832392,2893526442;-4526411,760810573;-5019690,14602191
33;-3832392,2893526442;-4528676,2337441705;-5019690,14602191
34;-3832392,2893526442;-4521259,849406012;-5019690,14602191
35;-3832392,2893526442;-4530663,826056585;-5019690,14602191
36;-3832392,2893526442;-4526437,641519198;-5019690,14602191
37;-3832392,2893526442;-4527234,196995112;-5019690,14602191
38;-3832392,2893526442;-4526287,664261705;-5019690,14602191
39;-3832392,2893526442;-4526672,959849521;-5019690,14602191
40;-3832392,2893526442;-4514785,606099063;-5019690,14602191
41;-3832392,2893526442;-4501865,510239425;-4919966,39910671
42;-3832392,2893526442;-4497514,369592071;-4919966,39910671
43;-3832392,2893526442;-4492243,5595153505;-4919966,39910671
44;-3832392,2893526442;-4481506,094644573;-4919966,39910671
45;-3832392,2893526442;-4484424,4338749;-4919966,39910671
46;-3832392,2893526442;-4477124,5960146375;-4919966,39910671
47;-3832392,2893526442;-4475697,290233659;-4919966,39910671
48;-3832392,2893526442;-4483006,241726211;-4919966,39910671
49;-3832392,2893526442;-4491168,2778926985;-4919966,39910671
50;-3832392,2893526442;-4486686,631402431;-4919966,39910671
51;-3832392,2893526442;-4473975,129091716;-4919966,39910671
52;-3832392,2893526442;-4468052,60092734;-4919966,39910671
53;-3832392,2893526442;-4464072,876552306;-4919966,39910671
54;-3832392,2893526442;-4465300,507769196;-4919966,39910671
55;-3832392,2893526442;-4463954,748825098;-4919966,39910671
56;-3832392,2893526442;-4460562,770228689;-4919966,39910671
57;-3832392,2893526442;-4457826,061025954;-4919966,39910671
58;-3832392,2893526442;-4464120,545317744;-4919966,39910671
59;-3832392,2893526442;-4451469,061498973;-4919966,39910671
60;-3832392,2893526442;-4453588,087484769;-4919966,39910671
61;-3832392,2893526442;-4459114,653982503;-4919966,39910671
62;-3832392,2893526442;-4455551,200361753;-4919966,39910671
63;-3832392,2893526442;-4457340,312707586;-4919966,39910671
64;-3832392,2893526442;-4454060,766467461;-4919966,39910671
65;-3832392,2893526442;-4467321,129189522;-4919966,39910671
66;-3832392,2893526442;-4465933,4151468435;-4919966,39910671
67;-3832392,2893526442;-4465403,9302662695;-4919966,39910671
68;-3832392,2893526442;-4463193,639555265;-4919966,39910671
69;-3832392,2893526442;-4464006,051509317;-4919966,39910671
70;-3832392,2893526442;-4465594,057555693;-4919966,39910671
71;-3832392,2893526442;-4461252,265939228;-4892121,299019028
72;-3832392,2893526442;-4464164,3370831115;-4892121,299019028
73;-3832392,2893526442;-4460050,689724831;-4892121,299019028
74;-3832392,2893526442;-4469580,86059145;-4892121,299019028
75;-3832392,2893526442;-4461245,296920277;-4892121,299019028
76;-3832392,2893526442;-4464182,497871044;-4892121,299019028
77;-3832392,2893526442;-4458285,19167554;-4892121,299019028
78;-3832392,2893526442;-4455546,353997458;-4892121,299019028
79;-3832392,2893526442;-4458960,4139988655;-4777841,508732536
80;-3832392,2893526442;-4456170,630753606;-4777841,508732536
81;-3832392,2893526442;-4449560,056856563;-4777841,508732536
82;-3832392,2893526442;-4443471,879968716;-4777841,508732536
83;-3832392,2893526442;-4447305,416508999;-4777841,508732536
84;-3832392,2893526442;-4446496,606692658;-4777841,508732536
85;-3832392,2893526442;-4441699,425833145;-4777841,508732536
86;-3832392,2893526442;-4435835,538807605;-4777841,508732536
87;-3832392,2893526442;-4427089,549758154;-4777841,508732536
88;-3832392,2893526442;-4429300,895161842;-4777841,508732536
89;-3832392,2893526442;-4427844,522185004;-4777841,508732536
90;-3832392,2893526442;-4432990,279308054;-4777841,508732536
91;-3832392,2893526442;-4431101,143590853;-4777841,508732536
92;-3832392,2893526442;-4422513,341225982;-4777841,508732536
93;-3832392,2893526442;-4426155,481208928;-4777841,508732536
94;-3832392,2893526442;-4436104,874179648;-4777841,508732536
95;-3832392,2893526442;-4426898,486318851;-4777841,508732536
96;-3832392,2893526442;-4423201,67723859;-4777841,508732536
97;-3832392,2893526442;-4433098,683196354;-4777841,508732536
98;-3832392,2893526442;-4434506,568932066;-4777841,508732536
99;-3832392,2893526442;-4439425,974863996;-4777841,508732536
100;-3832392,2893526442;-4441097,628898131;-4777841,508732536
101;-3832392,2893526442;-4426497,238254715;-4777841,508732536
102;-3832392,2893526442;-4425899,21881838;-4777841,508732536
103;-3832392,2893526442;-4436489,242263748;-4777841,508732536
104;-3832392,2893526442;-4435603,034782118;-4777841,508732536
105;-3832392,2893526442;-4426368,562369252;-4777841,508732536
106;-3832392,2893526442;-4422673,113981415;-4777841,508732536
107;-3832392,2893526442;-4420723,392054085;-4777841,508732536
108;-3832392,2893526442;-4428272,634057807;-4777841,508732536
109;-3832392,2893526442;-4427879,543745273;-4777841,508732536
110;-3832392,2893526442;-4425184,899659302;-4777841,508732536
111;-3832392,2893526442;-4417582,742957614;-4777841,508732536
112;-3832392,2893526442;-4428451,259583054;-4777841,508732536
113;-3832392,2893526442;-4420748,705292152;-4777841,508732536
114;-3832392,2893526442;-4422726,2300464595;-4777841,508732536
115;-3832392,2893526442;-4428757,222401763;-4777841,508732536
116;-3832392,2893526442;-4437995,123442832;-4777841,508732536
117;-3832392,2893526442;-4439391,265477078;-4777841,508732536
118;-3832392,2893526442;-4447757,809327638;-4777841,508732536
119;-3832392,2893526442;-4446254,4203515295;-4777841,508732536
120;-3832392,2893526442;-4435449,565023506;-4777841,508732536
121;-3832392,2893526442;-4426065,357172367;-4777841,508732536
122;-3832392,2893526442;-4425695,341756817;-4777841,508732536
123;-3832392,2893526442;-4419690,579603794;-4777841,508732536
124;-3832392,2893526442;-4410516,910832837;-4777841,508732536
125;-3832392,2893526442;-4409781,41697035;-4777841,508732536
126;-3832392,2893526442;-4407842,407922284;-4777841,508732536
127;-3832392,2893526442;-4410245,998186697;-4777841,508732536
128;-3832392,2893526442;-4413199,540890666;-4777841,508732536
129;-3832392,2893526442;-4422127,86121193;-4777841,508732536
130;-3832392,2893526442;-4426235,735173984;-4777841,508732536
131;-3832392,2893526442;-4426066,9732970605;-4777841,508732536
132;-3832392,2893526442;-4428315,585774547;-4777841,508732536
133;-3832392,2893526442;-4425747,823180915;-4777841,508732536
134;-3832392,2893526442;-4436561,366876666;-4777841,508732536
135;-3832392,2893526442;-4432831,43017224;-4777841,508732536
136;-3832392,2893526442;-4430345,303876918;-4777841,508732536
137;-3832392,2893526442;-4444196,635979188;-4777841,508732536
138;-3832392,2893526442;-4440958,966455617;-4777841,508732536
139;-3832392,2893526442;-4435941,027015536;-4777841,508732536
140;-3832392,2893526442;-4434016,909089785;-4777841,508732536
141;-3832392,2893526442;-4447745,746772354;-4777841,508732536
142;-3832392,2893526442;-4447118,887632651;-4777841,508732536
143;-3832392,2893526442;-4443832,772386564;-4777841,508732536
144;-3832392,2893526442;-4442477,482363973;-4777841,508732536
145;-3832392,2893526442;-4444062,729536005;-4777841,508732536
146;-3832392,2893526442;-4445501,378596871;-4777841,508732536
147;-3832392,2893526442;-4438325,60122761;-4739288,633939107
148;-3832392,2893526442;-4438156,084045768;-4739288,633939107
149;-3832392,2893526442;-4438864,2941844845;-4739288,633939107
150;-3832392,2893526442;-4439865,434377102;-4739288,633939107
151;-3832392,2893526442;-4428266,560410819;-4739288,633939107
152;-3832392,2893526442;-4427522,187553152;-4739288,633939107
153;-3832392,2893526442;-4423700,528528228;-4739288,633939107
154;-3832392,2893526442;-4404397,084703828;-4739288,633939107
155;-3832392,2893526442;-4415151,914461806;-4739288,633939107
156;-3832392,2893526442;-4412626,716156786;-4739288,633939107
157;-3832392,2893526442;-4408078,240634319;-4739288,633939107
158;-3832392,2893526442;-4404691,889739002;-4739288,633939107
159;-3832392,2893526442;-4393597,706229325;-4739288,633939107
160;-3832392,2893526442;-4404036,233411275;-4739288,633939107
161;-3832392,2893526442;-4403497,927868173;-4739288,633939107
162;-3832392,2893526442;-4409290,764586223;-4739288,633939107
163;-3832392,2893526442;-4404883,35947998;-4739288,633939107
164;-3832392,2893526442;-4393025,938041141;-4739288,633939107
165;-3832392,2893526442;-4399051,672387879;-4739288,633939107
166;-3832392,2893526442;-4402534,703129913;-4739288,633939107
167;-3832392,2893526442;-4393860,950573534;-4739288,633939107
168;-3832392,2893526442;-4388659,0776913995;-4739288,633939107
169;-3832392,2893526442;-4394887,155737992;-4739288,633939107
170;-3832392,2893526442;-4392117,25029155;-4739288,633939107
171;-3832392,2893526442;-4395534,810486094;-4739288,633939107
172;-3832392,2893526442;-4400855,424066532;-4685345,524923928
173;-3832392,2893526442;-4391419,128903397;-4685345,524923928
174;-3832392,2893526442;-4387902,148991141;-4685345,524923928
175;-3832392,2893526442;-4380585,970758104;-4685345,524923928
176;-3832392,2893526442;-4397239,773309293;-4685345,524923928
177;-3832392,2893526442;-4394937,154992281;-4685345,524923928
178;-3832392,2893526442;-4387895,770441262;-4685345,524923928
179;-3832392,2893526442;-4386328,418073543;-4685345,524923928
180;-3832392,2893526442;-4389987,528259618;-4685345,524923928
181;-3832392,2893526442;-4379571,878538622;-4685345,524923928
182;-3832392,2893526442;-4374577,061093478;-4685345,524923928
183;-3832392,2893526442;-4380465,330520596;-4685345,524923928
184;-3832392,2893526442;-4367164,433682433;-4685345,524923928
185;-3832392,2893526442;-4364851,013547406;-4685345,524923928
186;-3832392,2893526442;-4369366,229345111;-4685345,524923928
187;-3832392,2893526442;-4359612,085654634;-4685345,524923928
188;-3832392,2893526442;-4360163,31208269;-4685345,524923928
189;-3832392,2893526442;-4357524,807622709;-4685345,524923928
190;-3832392,2893526442;-4351839,86027636;-4685345,524923928
191;-3832392,2893526442;-4350562,213945914;-4685345,524923928
192;-3832392,2893526442;-4351916,095288868;-4685345,524923928
193;-3832392,2893526442;-4350383,978578003;-4685345,524923928
194;-3832392,2893526442;-4356839,584332539;-4685345,524923928
195;-3832392,2893526442;-4348697,628545291;-4685345,524923928
196;-3832392,2893526442;-4342528,748969466;-4685345,524923928
197;-3832392,2893526442;-4338124,082459099;-4685345,524923928
198;-3832392,2893526442;-4343215,201608492;-4685345,524923928
199;-3832392,2893526442;-4339491,464853147;-4685345,524923928
200;-3832392,2893526442;-4340103,743993643;-4685345,524923928
201;-3832392,2893526442;-4330036,700462069;-4685345,524923928
202;-3832392,2893526442;-4326338,061613393;-4685345,524923928
203;-3832392,2893526442;-4328062,599203194;-4685345,524923928
204;-3832392,2893526442;-4333451,632889003;-4685345,524923928
205;-3832392,2893526442;-4337550,775804767;-4685345,524923928
206;-3832392,2893526442;-4334930,308481363;-4685345,524923928
207;-3832392,2893526442;-4331168,075022344;-4685345,524923928
208;-3832392,2893526442;-4334833,590995379;-4685345,524923928
209;-3832392,2893526442;-4334967,364653451;-4685345,524923928
210;-3832392,2893526442;-4330569,001338295;-4685345,524923928
211;-3832392,2893526442;-4320205,541413831;-4685345,524923928
212;-3832392,2893526442;-4326730,738712776;-4685345,524923928
213;-3832392,2893526442;-4329183,6977056395;-4685345,524923928
214;-3832392,2893526442;-4318771,043173665;-4685345,524923928
215;-3832392,2893526442;-4307576,033180534;-4685345,524923928
216;-3832392,2893526442;-4308277,237767983;-4685345,524923928
217;-3832392,2893526442;-4308884,0620913;-4685345,524923928
218;-3832392,2893526442;-4304923,503710073;-4685345,524923928
219;-3832392,2893526442;-4301059,964474627;-4685345,524923928
220;-3832392,2893526442;-4304880,159948277;-4685345,524923928
221;-3832392,2893526442;-4298802,522811966;-4685345,524923928
222;-3832392,2893526442;-4305187,109462728;-4685345,524923928
223;-3832392,2893526442;-4302322,130072658;-4685345,524923928
224;-3832392,2893526442;-4300289,701973779;-4685345,524923928
225;-3832392,2893526442;-4298212,655254751;-4685345,524923928
226;-3832392,2893526442;-4303492,683464195;-4685345,524923928
227;-3832392,2893526442;-4305445,514851697;-4685345,524923928
228;-3832392,2893526442;-4308327,4551245645;-4548157,206858611
229;-3832392,2893526442;-4306327,083133116;-4548157,206858611
230;-3832392,2893526442;-4307839,7526255045;-4548157,206858611
231;-3832392,2893526442;-4307897,874837101;-4548157,206858611
232;-3832392,2893526442;-4317023,726921485;-4548157,206858611
233;-3832392,2893526442;-4314222,496583791;-4548157,206858611
234;-3832392,2893526442;-4315016,21567095;-4548157,206858611
235;-3832392,2893526442;-4313146,915948667;-4548157,206858611
236;-3832392,2893526442;-4318695,466428975;-4548157,206858611
237;-3832392,2893526442;-4321106,965125872;-4548157,206858611
238;-3832392,2893526442;-4318441,833025801;-4548157,206858611
239;-3832392,2893526442;-4311725,116004616;-4548157,206858611
240;-3832392,2893526442;-4316991,506199689;-4548157,206858611
241;-3832392,2893526442;-4317658,950569818;-4548157,206858611
242;-3832392,2893526442;-4311578,078239309;-4548157,206858611
243;-3832392,2893526442;-4310616,013828999;-4548157,206858611
244;-3832392,2893526442;-4301779,991662247;-4548157,206858611
245;-3832392,2893526442;-4291263,679982224;-4548157,206858611
246;-3832392,2893526442;-4290414,551359975;-4548157,206858611
247;-3832392,2893526442;-4283981,947806487;-4548157,206858611
248;-3832392,2893526442;-4282384,444080226;-4548157,206858611
249;-3832392,2893526442;-4278094,152215352;-4548157,206858611
250;-3832392,2893526442;-4274594,56255105;-4548157,206858611
251;-3832392,2893526442;-4279817,431852996;-4548157,206858611
252;-3832392,2893526442;-4268928,965679567;-4548157,206858611
253;-3832392,2893526442;-4262324,077047915;-4548157,206858611
254;-3832392,2893526442;-4267214,845166564;-4548157,206858611
255;-3832392,2893526442;-4268471,408301729;-4548157,206858611
256;-3832392,2893526442;-4274820,473973151;-4548157,206858611
257;-3832392,2893526442;-4282484,655775755;-4548157,206858611
258;-3832392,2893526442;-4288283,071106642;-4548157,206858611
259;-3832392,2893526442;-4295588,827276887;-4548157,206858611
260;-3832392,2893526442;-4295524,690115543;-4548157,206858611
261;-3832392,2893526442;-4290475,877404028;-4486625,095252245
262;-3832392,2893526442;-4295945,09691985;-4486625,095252245
263;-3832392,2893526442;-4303079,298070631;-4486625,095252245
264;-3832392,2893526442;-4309269,378131823;-4486625,095252245
265;-3832392,2893526442;-4307089,688385516;-4486625,095252245
266;-3832392,2893526442;-4307051,304898967;-4486625,095252245
267;-3832392,2893526442;-4309088,23885475;-4486625,095252245
268;-3832392,2893526442;-4305755,698154692;-4486625,095252245
269;-3832392,2893526442;-4305726,267417576;-4486625,095252245
270;-3832392,2893526442;-4305182,054365267;-4486625,095252245
271;-3832392,2893526442;-4311356,912918353;-4486625,095252245
272;-3832392,2893526442;-4312796,4417828955;-4486625,095252245
273;-3832392,2893526442;-4307607,338346141;-4486625,095252245
274;-3832392,2893526442;-4304351,537199599;-4486625,095252245
275;-3832392,2893526442;-4302105,112944145;-4486625,095252245
276;-3832392,2893526442;-4305588,786653533;-4486625,095252245
277;-3832392,2893526442;-4312405,763522231;-4486625,095252245
278;-3832392,2893526442;-4309632,064844192;-4486625,095252245
279;-3832392,2893526442;-4311215,716423672;-4486625,095252245
280;-3832392,2893526442;-4304174,847126005;-4486625,095252245
281;-3832392,2893526442;-4294596,803682742;-4486625,095252245
282;-3832392,2893526442;-4294239,212958615;-4486625,095252245
283;-3832392,2893526442;-4298153,969262239;-4486625,095252245
284;-3832392,2893526442;-4296315,794691645;-4486625,095252245
285;-3832392,2893526442;-4298704,472377332;-4486625,095252245
286;-3832392,2893526442;-4296559,0519105755;-4486625,095252245
287;-3832392,2893526442;-4298277,49215179;-4486625,095252245
288;-3832392,2893526442;-4286515,349698201;-4486625,095252245
289;-3832392,2893526442;-4278740,216852189;-4486625,095252245
290;-3832392,2893526442;-4265560,720906071;-4486625,095252245
291;-3832392,2893526442;-4266914,500051398;-4486625,095252245
292;-3832392,2893526442;-4266863,603862621;-4486625,095252245
293;-3832392,2893526442;-4270581,127122558;-4486625,095252245
294;-3832392,2893526442;-4275269,39537809;-4486625,095252245
295;-3832392,2893526442;-4275220,799311613;-4486625,095252245
296;-3832392,2893526442;-4278723,158035576;-4486625,095252245
297;-3832392,2893526442;-4275722,008883386;-4486625,095252245
298;-3832392,2893526442;-4270590,779051825;-4486625,095252245
299;-3832392,2893526442;-4266822,054350975;-4486625,095252245
300;-3832392,2893526442;-4265384,62239719;-4486625,095252245
301;-3832392,2893526442;-4262520,925379026;-4486625,095252245
302;-3832392,2893526442;-4260130,054933841;-4486625,095252245
303;-3832392,2893526442;-4258580,311912891;-4486625,095252245
304;-3832392,2893526442;-4261211,289345756;-4486625,095252245
305;-3832392,2893526442;-4263420,514486645;-4486625,095252245
306;-3832392,2893526442;-4261488,007241569;-4486625,095252245
307;-3832392,2893526442;-4257032,729811428;-4486625,095252245
308;-3832392,2893526442;-4252650,557954121;-4486625,095252245
309;-3832392,2893526442;-4253446,13993899;-4486625,095252245
310;-3832392,2893526442;-4264177,130641686;-4486625,095252245
311;-3832392,2893526442;-4256947,359817074;-4486625,095252245
312;-3832392,2893526442;-4246474,501864177;-4471285,04344481
313;-3832392,2893526442;-4254499,357719582;-4471285,04344481
314;-3832392,2893526442;-4240149,85056773;-4376800,26569744
315;-3832392,2893526442;-4242845,059769025;-4376800,26569744
316;-3832392,2893526442;-4250100,275333727;-4376800,26569744
317;-3832392,2893526442;-4260088,187093669;-4376800,26569744
318;-3832392,2893526442;-4251651,016282649;-4376800,26569744
319;-3832392,2893526442;-4258941,687787055;-4376800,26569744
320;-3832392,2893526442;-4261445,100347697;-4376800,26569744
321;-3832392,2893526442;-4249670,577822283;-4376800,26569744
322;-3832392,2893526442;-4254397,718495358;-4376800,26569744
323;-3832392,2893526442;-4262834,897329461;-4376800,26569744
324;-3832392,2893526442;-4262963,484539711;-4376800,26569744
325;-3832392,2893526442;-4260983,038056261;-4376800,26569744
326;-3832392,2893526442;-4263182,095814627;-4376800,26569744
327;-3832392,2893526442;-4264459,487976136;-4376800,26569744
328;-3832392,2893526442;-4254945,217631415;-4376800,26569744
329;-3832392,2893526442;-4250233,037878411;-4376800,26569744
330;-3832392,2893526442;-4251240,447002627;-4376800,26569744
331;-3832392,2893526442;-4245642,041546307;-4376800,26569744
332;-3832392,2893526442;-4243920,937832801;-4376800,26569744
333;-3832392,2893526442;-4246586,095921833;-4376800,26569744
334;-3832392,2893526442;-4239043,638778203;-4376800,26569744
335;-3832392,2893526442;-4243152,376458894;-4376800,26569744
336;-3832392,2893526442;-4249856,719114336;-4376800,26569744
337;-3832392,2893526442;-4242773,087784143;-4376800,26569744
338;-3832392,2893526442;-4238653,564517816;-4376800,26569744
339;-3832392,2893526442;-4236460,971692366;-4376800,26569744
340;-3832392,2893526442;-4221428,634591242;-4376800,26569744
341;-3832392,2893526442;-4219661,426647598;-4376800,26569744
342;-3832392,2893526442;-4219933,561988168;-4376800,26569744
343;-3832392,2893526442;-4218287,400170221;-4376800,26569744
344;-3832392,2893526442;-4212187,446466611;-4376800,26569744
345;-3832392,2893526442;-4207435,643462551;-4376800,26569744
346;-3832392,2893526442;-4199834,281495071;-4376800,26569744
347;-3832392,2893526442;-4198392,85420669;-4376800,26569744
348;-3832392,2893526442;-4203302,23542779;-4376800,26569744
349;-3832392,2893526442;-4208542,794108514;-4376800,26569744
350;-3832392,2893526442;-4204370,838974336;-4376800,26569744
351;-3832392,2893526442;-4211076,2658045;-4376800,26569744
352;-3832392,2893526442;-4226540,468766511;-4376800,26569744
353;-3832392,2893526442;-4224062,665416374;-4376800,26569744
354;-3832392,2893526442;-4225343,2860328;-4376800,26569744
355;-3832392,2893526442;-4227938,899030634;-4376800,26569744
356;-3832392,2893526442;-4227978,5222816905;-4376800,26569744
357;-3832392,2893526442;-4224448,427047124;-4376800,26569744
358;-3832392,2893526442;-4232087,389234501;-4376800,26569744
359;-3832392,2893526442;-4222525,946531087;-4376800,26569744
360;-3832392,2893526442;-4214744,649660231;-4376800,26569744
361;-3832392,2893526442;-4221386,867059992;-4376800,26569744
362;-3832392,2893526442;-4228299,0594739625;-4376800,26569744
363;-3832392,2893526442;-4231510,91513782;-4376800,26569744
364;-3832392,2893526442;-4235991,529680829;-4376800,26569744
365;-3832392,2893526442;-4236603,467740298;-4376800,26569744
366;-3832392,2893526442;-4235533,925337317;-4376800,26569744
367;-3832392,2893526442;-4232435,687940555;-4376800,26569744
368;-3832392,2893526442;-4232765,781225455;-4376800,26569744
369;-3832392,2893526442;-4232018,791022821;-4376800,26569744
370;-3832392,2893526442;-4234476,107376408;-4376800,26569744
371;-3832392,2893526442;-4229552,849409959;-4376800,26569744
372;-3832392,2893526442;-4224417,437078427;-4376800,26569744
373;-3832392,2893526442;-4233151,550879288;-4376800,26569744
374;-3832392,2893526442;-4234899,47725014;-4376800,26569744
375;-3832392,2893526442;-4230350,256472369;-4376800,26569744
376;-3832392,2893526442;-4223525,814570749;-4376800,26569744
377;-3832392,2893526442;-4225962,773199906;-4376800,26569744
378;-3832392,2893526442;-4224398,155505634;-4376800,26569744
379;-3832392,2893526442;-4229603,250223569;-4376800,26569744
380;-3832392,2893526442;-4236856,313484993;-4376800,26569744
381;-3832392,2893526442;-4231414,394047907;-4376800,26569744
382;-3832392,2893526442;-4240957,502058047;-4376800,26569744
383;-3832392,2893526442;-4245182,018332195;-4376800,26569744
384;-3832392,2893526442;-4239707,895479568;-4376800,26569744
385;-3832392,2893526442;-4235525,162782839;-4376800,26569744
386;-3832392,2893526442;-4230589,104222679;-4376800,26569744
387;-3832392,2893526442;-4238605,194758447;-4376800,26569744
388;-3832392,2893526442;-4240457,046008563;-4376800,26569744
389;-3832392,2893526442;-4225754,80219234;-4376800,26569744
390;-3832392,2893526442;-4224205,145418139;-4376800,26569744
391;-3832392,2893526442;-4219502,667076049;-4376800,26569744
392;-3832392,2893526442;-4228327,889116299;-4376800,26569744
393;-3832392,2893526442;-4225690,492541049;-4376800,26569744
394;-3832392,2893526442;-4234344,267641992;-4376800,26569744
395;-3832392,2893526442;-4228479,115626378;-4376800,26569744
396;-3832392,2893526442;-4227381,674414412;-4376800,26569744
397;-3832392,2893526442;-4218862,959479717;-4376800,26569744
398;-3832392,2893526442;-4226383,982747277;-4376800,26569744
399;-3832392,2893526442;-4232141,973405628;-4376800,26569744
400;-3832392,2893526442;-4230507,673324956;-4376800,26569744
401;-3832392,2893526442;-4214282,587368795;-4376800,26569744
402;-3832392,2893526442;-4184928,36325475;-4376800,26569744
403;-3832392,2893526442;-4182544,912645082;-4376800,26569744
404;-3832392,2893526442;-4172300,765321074;-4376800,26569744
405;-3832392,2893526442;-4165627,420657411;-4376800,26569744
406;-3832392,2893526442;-4161975,065850306;-4376800,26569744
407;-3832392,2893526442;-4149542,6463535684;-4376800,26569744
408;-3832392,2893526442;-4148317,839401278;-4376800,26569744
409;-3832392,2893526442;-4145345,0900319694;-4376800,26569744
410;-3832392,2893526442;-4139238,800667563;-4376800,26569744
411;-3832392,2893526442;-4139058,7204458984;-4376800,26569744
412;-3832392,2893526442;-4133340,2157433988;-4376800,26569744
413;-3832392,2893526442;-4137364,302094535;-4376800,26569744
414;-3832392,2893526442;-4143747,1767243533;-4376800,26569744
415;-3832392,2893526442;-4149326,1713357633;-4376800,26569744
416;-3832392,2893526442;-4155999,515999426;-4376800,26569744
417;-3832392,2893526442;-4156374,637362826;-4376800,26569744
418;-3832392,2893526442;-4153202,5422452274;-4376800,26569744
419;-3832392,2893526442;-4142742,0652217013;-4376800,26569744
420;-3832392,2893526442;-4151149,3222156633;-4376800,26569744
421;-3832392,2893526442;-4156487,1875013667;-4376800,26569744
422;-3832392,2893526442;-4171759,5857996456;-4376800,26569744
423;-3832392,2893526442;-4161694,579840866;-4376800,26569744
424;-3832392,2893526442;-4161756,7211427134;-4376800,26569744
425;-3832392,2893526442;-4157113,2849196745;-4376800,26569744
426;-3832392,2893526442;-4143208,440142775;-4376800,26569744
427;-3832392,2893526442;-4155831,5801285272;-4376800,26569744
428;-3832392,2893526442;-4162435,097087502;-4376800,26569744
429;-3832392,2893526442;-4165684,4317222224;-4376800,26569744
430;-3832392,2893526442;-4174076,5824778276;-4376800,26569744
431;-3832392,2893526442;-4173341,4540124685;-4376800,26569744
432;-3832392,2893526442;-4172965,2564974297;-4376800,26569744
433;-3832392,2893526442;-4174595,243948465;-4376800,26569744
434;-3832392,2893526442;-4170860,5514795347;-4376800,26569744
435;-3832392,2893526442;-4169336,641211041;-4376800,26569744
436;-3832392,2893526442;-4170208,982145926;-4376800,26569744
437;-3832392,2893526442;-4167244,728763773;-4376800,26569744
438;-3832392,2893526442;-4151591,957616022;-4376800,26569744
439;-3832392,2893526442;-4148214,9826505696;-4376800,26569744
440;-3832392,2893526442;-4145813,326619748;-4376800,26569744
441;-3832392,2893526442;-4146067,2645622487;-4376800,26569744
442;-3832392,2893526442;-4153375,9961695243;-4376800,26569744
443;-3832392,2893526442;-4153837,913142674;-4376800,26569744
444;-3832392,2893526442;-4146740,2517257603;-4376800,26569744
445;-3832392,2893526442;-4141927,38357149;-4376800,26569744
446;-3832392,2893526442;-4141446,193048632;-4376800,26569744
447;-3832392,2893526442;-4137414,557589858;-4376800,26569744
448;-3832392,2893526442;-4143562,7678268855;-4376800,26569744
449;-3832392,2893526442;-4147924,496570559;-4376800,26569744
450;-3832392,2893526442;-4143024,824783456;-4376800,26569744
451;-3832392,2893526442;-4146374,8317732755;-4376800,26569744
452;-3832392,2893526442;-4151957,062862685;-4376800,26569744
453;-3832392,2893526442;-4153840,9962793035;-4376800,26569744
454;-3832392,2893526442;-4163359,5792536642;-4376800,26569744
455;-3832392,2893526442;-4153485,301806982;-4376800,26569744
456;-3832392,2893526442;-4146015,7635277514;-4376800,26569744
457;-3832392,2893526442;-4134836,0658384548;-4376800,26569744
458;-3832392,2893526442;-4140824,5535782482;-4376800,26569744
459;-3832392,2893526442;-4130678,9343291447;-4376800,26569744
460;-3832392,2893526442;-4123334,8921004506;-4376800,26569744
461;-3832392,2893526442;-4117750,500684681;-4376800,26569744
462;-3832392,2893526442;-4121709,2172790533;-4376800,26569744
463;-3832392,2893526442;-4136600,968137452;-4376800,26569744
464;-3832392,2893526442;-4145476,4697422762;-4376800,26569744
465;-3832392,2893526442;-4146543,851818897;-4376800,26569744
466;-3832392,2893526442;-4149420,217393495;-4376800,26569744
467;-3832392,2893526442;-4146077,614193026;-4376800,26569744
468;-3832392,2893526442;-4135194,851470489;-4376800,26569744
469;-3832392,2893526442;-4123379,6215192936;-4376800,26569744
470;-3832392,2893526442;-4133158,4700738667;-4376800,26569744
471;-3832392,2893526442;-4145344,3634405374;-4376800,26569744
472;-3832392,2893526442;-4138324,8803971815;-4376800,26569744
473;-3832392,2893526442;-4139633,399822592;-4376800,26569744
474;-3832392,2893526442;-4138376,373408596;-4376800,26569744
475;-3832392,2893526442;-4148136,0857086633;-4376800,26569744
476;-3832392,2893526442;-4138831,9627440334;-4376800,26569744
477;-3832392,2893526442;-4137061,5263454732;-4376800,26569744
478;-3832392,2893526442;-4147620,668739108;-4376800,26569744
479;-3832392,2893526442;-4149232,3214968694;-4376800,26569744
480;-3832392,2893526442;-4153998,1545876497;-4376800,26569744
481;-3832392,2893526442;-4152356,2973762564;-4376800,26569744
482;-3832392,2893526442;-4163749,0882870723;-4376800,26569744
483;-3832392,2893526442;-4161286,3831522083;-4376800,26569744
484;-3832392,2893526442;-4159906,0210140357;-4376800,26569744
485;-3832392,2893526442;-4167763,4732272937;-4376800,26569744
486;-3832392,2893526442;-4178697,728961245;-4376800,26569744
487;-3832392,2893526442;-4174961,9523175927;-4376800,26569744
488;-3832392,2893526442;-4178509,160775508;-4376800,26569744
489;-3832392,2893526442;-4186308,655044436;-4376800,26569744
490;-3832392,2893526442;-4185893,9104299797;-4376800,26569744
491;-3832392,2893526442;-4184375,388942763;-4376800,26569744
492;-3832392,2893526442;-4180340,6623242768;-4376800,26569744
493;-3832392,2893526442;-4165593,535747838;-4376800,26569744
494;-3832392,2893526442;-4170411,792683385;-4376800,26569744
495;-3832392,2893526442;-4173850,7716554813;-4376800,26569744
496;-3832392,2893526442;-4182015,815149015;-4376800,26569744
497;-3832392,2893526442;-4182359,938520634;-4376800,26569744
498;-3832392,2893526442;-4179216,6810684553;-4376800,26569744
499;-3832392,2893526442;-4201469,732697182;-4376800,26569744
500;-3832392,2893526442;-4206833,33646551;-4376800,26569744
501;-3832392,2893526442;-4206577,100901445;-4376800,26569744
502;-3832392,2893526442;-4204003,997931318;-4376800,26569744
503;-3832392,2893526442;-4197063,914731445;-4376800,26569744
504;-3832392,2893526442;-4196956,761397264;-4376800,26569744
505;-3832392,2893526442;-4203277,494725236;-4376800,26569744
506;-3832392,2893526442;-4185348,5635972;-4376800,26569744
507;-3832392,2893526442;-4176949,9398855963;-4376800,26569744
508;-3832392,2893526442;-4166794,7565207817;-4376800,26569744
509;-3832392,2893526442;-4154580,964345126;-4376800,26569744
510;-3832392,2893526442;-4174587,915128914;-4376800,26569744
511;-3832392,2893526442;-4167092,638367059;-4376800,26569744
512;-3832392,2893526442;-4174202,0162029616;-4376800,26569744
513;-3832392,2893526442;-4178892,632807777;-4376800,26569744
514;-3832392,2893526442;-4175172,8932358343;-4376800,26569744
515;-3832392,2893526442;-4174254,6014121803;-4376800,26569744
516;-3832392,2893526442;-4168083,8811474456;-4376800,26569744
517;-3832392,2893526442;-4164489,492307754;-4376800,26569744
518;-3832392,2893526442;-4161509,0565356044;-4376800,26569744
519;-3832392,2893526442;-4152758,9056630307;-4376800,26569744
520;-3832392,2893526442;-4154781,127700814;-4376800,26569744
521;-3832392,2893526442;-4162207,8062509894;-4376800,26569744
522;-3832392,2893526442;-4153639,8879033574;-4376800,26569744
523;-3832392,2893526442;-4157981,266945684;-4376800,26569744
524;-3832392,2893526442;-4156503,452884245;-4376800,26569744
525;-3832392,2893526442;-4149233,268376388;-4376800,26569744
526;-3832392,2893526442;-4146811,262644219;-4376800,26569744
527;-3832392,2893526442;-4130884,2038526195;-4376800,26569744
528;-3832392,2893526442;-4126949,0814606766;-4376800,26569744
529;-3832392,2893526442;-4129180,366703831;-4376800,26569744
530;-3832392,2893526442;-4138160,8693395588;-4376800,26569744
531;-3832392,2893526442;-4143390,6344115622;-4376800,26569744
532;-3832392,2893526442;-4149678,0801492725;-4376800,26569744
533;-3832392,2893526442;-4148529,1379028093;-4376800,26569744
534;-3832392,2893526442;-4140728,4221639563;-4376800,26569744
535;-3832392,2893526442;-4139616,0200319197;-4376800,26569744
536;-3832392,2893526442;-4143723,6735378895;-4376800,26569744
537;-3832392,2893526442;-4142431,1911841887;-4376800,26569744
538;-3832392,2893526442;-4138066,363257719;-4376800,26569744
539;-3832392,2893526442;-4136398,767563701;-4376800,26569744
540;-3832392,2893526442;-4135596,109015218;-4376800,26569744
541;-3832392,2893526442;-4138362,0847776365;-4376800,26569744
542;-3832392,2893526442;-4147640,6065548453;-4376800,26569744
543;-3832392,2893526442;-4137530,443245447;-4376800,26569744
544;-3832392,2893526442;-4132815,1562865623;-4376800,26569744
545;-3832392,2893526442;-4124935,1860225135;-4376800,26569744
546;-3832392,2893526442;-4132267,5038091354;-4376800,26569744
547;-3832392,2893526442;-4118242,559786059;-4376800,26569744
548;-3832392,2893526442;-4116190,2786129303;-4376800,26569744
549;-3832392,2893526442;-4111203,94851128;-4376800,26569744
550;-3832392,2893526442;-4121333,3853703877;-4376800,26569744
551;-3832392,2893526442;-4109038,178343176;-4376800,26569744
552;-3832392,2893526442;-4091948,4458780503;-4376800,26569744
553;-3832392,2893526442;-4084963,34262276;-4376800,26569744
554;-3832392,2893526442;-4092436,109356907;-4376800,26569744
555;-3832392,2893526442;-4097102,192902858;-4376800,26569744
556;-3832392,2893526442;-4090966,7832595413;-4376800,26569744
557;-3832392,2893526442;-4100170,225845989;-4376800,26569744
558;-3832392,2893526442;-4089765,4171683113;-4376800,26569744
559;-3832392,2893526442;-4083232,521452173;-4376800,26569744
560;-3832392,2893526442;-4090755,55972781;-4376800,26569744
561;-3832392,2893526442;-4097672,1940435404;-4376800,26569744
562;-3832392,2893526442;-4092832,503231924;-4376800,26569744
563;-3832392,2893526442;-4085285,7334586545;-4376800,26569744
564;-3832392,2893526442;-4086985,266000888;-4376800,26569744
565;-3832392,2893526442;-4086556,6446410823;-4376800,26569744
566;-3832392,2893526442;-4074860,575079629;-4376800,26569744
567;-3832392,2893526442;-4069521,496347084;-4376800,26569744
568;-3832392,2893526442;-4075815,269722506;-4376800,26569744
569;-3832392,2893526442;-4073120,052498128;-4376800,26569744
570;-3832392,2893526442;-4069027,359912229;-4376800,26569744
571;-3832392,2893526442;-4064572,4918749267;-4376800,26569744
572;-3832392,2893526442;-4057371,9977765535;-4376800,26569744
573;-3832392,2893526442;-4051966,473135604;-4376800,26569744
574;-3832392,2893526442;-4062330,437092302;-4376800,26569744
575;-3832392,2893526442;-4073423,1938535618;-4376800,26569744
576;-3832392,2893526442;-4084969,242328696;-4376800,26569744
577;-3832392,2893526442;-4095047,1861763885;-4376800,26569744
578;-3832392,2893526442;-4102445,9498714134;-4376800,26569744
579;-3832392,2893526442;-4097506,6548332535;-4376800,26569744
580;-3832392,2893526442;-4097222,657755408;-4376800,26569744
581;-3832392,2893526442;-4098705,860598123;-4376800,26569744
582;-3832392,2893526442;-4100006,830915896;-4376800,26569744
583;-3832392,2893526442;-4112668,5180010656;-4376800,26569744
584;-3832392,2893526442;-4099568,500122093;-4376800,26569744
585;-3832392,2893526442;-4091033,885410889;-4376800,26569744
586;-3832392,2893526442;-4081066,331375376;-4376800,26569744
587;-3832392,2893526442;-4062138,624405483;-4376800,26569744
588;-3832392,2893526442;-4055943,379104966;-4376800,26569744
589;-3832392,2893526442;-4071104,1661211397;-4376800,26569744
590;-3832392,2893526442;-4083643,7389520574;-4376800,26569744
591;-3832392,2893526442;-4083775,5626403065;-4376800,26569744
592;-3832392,2893526442;-4087080,557597793;-4376800,26569744
593;-3832392,2893526442;-4094237,107792389;-4376800,26569744
594;-3832392,2893526442;-4099682,1183891892;-4376800,26569744
595;-3832392,2893526442;-4102523,0360471657;-4376800,26569744
596;-3832392,2893526442;-4103332,030256444;-4376800,26569744
597;-3832392,2893526442;-4093675,3039792054;-4376800,26569744
598;-3832392,2893526442;-4097476,450379622;-4376800,26569744
599;-3832392,2893526442;-4087735,072772828;-4376800,26569744
600;-3832392,2893526442;-4088931,042059698;-4376800,26569744
601;-3832392,2893526442;-4088257,1080166684;-4376800,26569744
602;-3832392,2893526442;-4090691,9143425473;-4376800,26569744
603;-3832392,2893526442;-4098500,171165955;-4376800,26569744
604;-3832392,2893526442;-4102974,3127529654;-4376800,26569744
605;-3832392,2893526442;-4107282,258886744;-4376800,26569744
606;-3832392,2893526442;-4093467,46224376;-4376800,26569744
607;-3832392,2893526442;-4087351,3261501524;-4376800,26569744
608;-3832392,2893526442;-4100391,2257584347;-4376800,26569744
609;-3832392,2893526442;-4105513,692177972;-4376800,26569744
610;-3832392,2893526442;-4101307,5105970968;-4376800,26569744
611;-3832392,2893526442;-4113250,106288617;-4376800,26569744
612;-3832392,2893526442;-4115317,3403587337;-4376800,26569744
613;-3832392,2893526442;-4119786,230459671;-4376800,26569744
614;-3832392,2893526442;-4103205,4580542683;-4376800,26569744
615;-3832392,2893526442;-4107770,7159037506;-4376800,26569744
616;-3832392,2893526442;-4121899,568759925;-4376800,26569744
617;-3832392,2893526442;-4110003,06927546;-4376800,26569744
618;-3832392,2893526442;-4107422,5625159824;-4376800,26569744
619;-3832392,2893526442;-4099313,3326865844;-4376800,26569744
620;-3832392,2893526442;-4099010,06205903;-4376800,26569744
621;-3832392,2893526442;-4090073,5033270796;-4376800,26569744
622;-3832392,2893526442;-4106403,436972778;-4376800,26569744
623;-3832392,2893526442;-4112843,0561000844;-4376800,26569744
624;-3832392,2893526442;-4103067,306728307;-4376800,26569744
625;-3832392,2893526442;-4093076,166513447;-4376800,26569744
626;-3832392,2893526442;-4089759,3017956023;-4376800,26569744
627;-3832392,2893526442;-4088549,4477403;-4376800,26569744
628;-3832392,2893526442;-4095353,394622287;-4376800,26569744
629;-3832392,2893526442;-4083184,6225020476;-4376800,26569744
630;-3832392,2893526442;-4075644,3256847765;-4376800,26569744
631;-3832392,2893526442;-4082780,5261780242;-4376800,26569744
632;-3832392,2893526442;-4081052,94950852;-4376800,26569744
633;-3832392,2893526442;-4090716,0114465533;-4376800,26569744
634;-3832392,2893526442;-4094316,8652191604;-4354290,237989473
635;-3832392,2893526442;-4098870,2613313673;-4354290,237989473
636;-3832392,2893526442;-4081447,199103342;-4354290,237989473
637;-3832392,2893526442;-4078115,381488509;-4354290,237989473
638;-3832392,2893526442;-4081776,216236604;-4354290,237989473
639;-3832392,2893526442;-4089411,8046507807;-4354290,237989473
640;-3832392,2893526442;-4086151,82974871;-4354290,237989473
641;-3832392,2893526442;-4086159,378856347;-4354290,237989473
642;-3832392,2893526442;-4091900,2562913517;-4354290,237989473
643;-3832392,2893526442;-4098756,7723363917;-4354290,237989473
644;-3832392,2893526442;-4089748,3708916795;-4354290,237989473
645;-3832392,2893526442;-4086352,259671722;-4354290,237989473
646;-3832392,2893526442;-4088704,574994406;-4354290,237989473
647;-3832392,2893526442;-4079302,862811307;-4354290,237989473
648;-3832392,2893526442;-4061350,3535270076;-4354290,237989473
649;-3832392,2893526442;-4069829,307915446;-4354290,237989473
650;-3832392,2893526442;-4067942,146043911;-4354290,237989473
651;-3832392,2893526442;-4057504,1870711753;-4354290,237989473
652;-3832392,2893526442;-4044778,206380875;-4354290,237989473
653;-3832392,2893526442;-4045950,5894883987;-4354290,237989473
654;-3832392,2893526442;-4052149,0712669175;-4354290,237989473
655;-3832392,2893526442;-4049210,5643904703;-4354290,237989473
656;-3832392,2893526442;-4034661,715433759;-4354290,237989473
657;-3832392,2893526442;-4041711,1122941775;-4354290,237989473
658;-3832392,2893526442;-4045107,223514137;-4354290,237989473
659;-3832392,2893526442;-4030293,6510292883;-4354290,237989473
660;-3832392,2893526442;-4034340,2474081344;-4354290,237989473
661;-3832392,2893526442;-4024874,241619906;-4354290,237989473
662;-3832392,2893526442;-4030093,221106276;-4354290,237989473
663;-3832392,2893526442;-4021799,5984255713;-4354290,237989473
664;-3832392,2893526442;-4021542,4240050716;-4354290,237989473
665;-3832392,2893526442;-4033810,80035186;-4354290,237989473
666;-3832392,2893526442;-4029370,893234627;-4354290,237989473
667;-3832392,2893526442;-4022321,4963742085;-4354290,237989473
668;-3832392,2893526442;-4016066,270098202;-4354290,237989473
669;-3832392,2893526442;-4020112,866477048;-4354290,237989473
670;-3832392,2893526442;-4026368,0927530546;-4354290,237989473
671;-3832392,2893526442;-4038693,2135973307;-4354290,237989473
672;-3832392,2893526442;-4038821,8008075804;-4354290,237989473
673;-3832392,2893526442;-4033788,1530289478;-4354290,237989473
674;-3832392,2893526442;-4042860,848078789;-4354290,237989473
675;-3832392,2893526442;-4036469,4854848953;-4354290,237989473
676;-3832392,2893526442;-4033073,374264936;-4354290,237989473
677;-3832392,2893526442;-4039529,030463955;-4354290,237989473
678;-3832392,2893526442;-4047951,2403549096;-4354290,237989473
679;-3832392,2893526442;-4047750,810431897;-4354290,237989473
680;-3832392,2893526442;-4064258,663972905;-4354290,237989473
681;-3832392,2893526442;-4068240,966746624;-4354290,237989473
682;-3832392,2893526442;-4063801,0596293933;-4354290,237989473
683;-3832392,2893526442;-4056823,5054817386;-4354290,237989473
684;-3832392,2893526442;-4060026,735886323;-4354290,237989473
685;-3832392,2893526442;-4051997,8367337557;-4354290,237989473
686;-3832392,2893526442;-4055851,552297227;-4354290,237989473
687;-3832392,2893526442;-4060612,9274400845;-4354290,237989473
688;-3832392,2893526442;-4073796,5124738906;-4354290,237989473
689;-3832392,2893526442;-4082797,364810966;-4354290,237989473
690;-3832392,2893526442;-4091212,025594279;-4354290,237989473
691;-3832392,2893526442;-4095708,6772089982;-4354290,237989473
692;-3832392,2893526442;-4087687,327164072;-4354290,237989473
693;-3832392,2893526442;-4087759,169876834;-4354290,237989473
694;-3832392,2893526442;-4083977,2970261266;-4354290,237989473
695;-3832392,2893526442;-4079866,407042158;-4354290,237989473
696;-3832392,2893526442;-4086265,3187436857;-4354290,237989473
697;-3832392,2893526442;-4079873,9561497946;-4354290,237989473
698;-3832392,2893526442;-4058476,140255687;-4354290,237989473
699;-3832392,2893526442;-4054092,977635941;-4354290,237989473
700;-3832392,2893526442;-4066361,353982726;-4354290,237989473
701;-3832392,2893526442;-4063751,8642395423;-4354290,237989473
702;-3832392,2893526442;-4053177,768948917;-4354290,237989473
703;-3832392,2893526442;-4044498,3846374624;-4354290,237989473
704;-3832392,2893526442;-4044490,835529825;-4354290,237989473
705;-3832392,2893526442;-4040508,532756104;-4354290,237989473
706;-3832392,2893526442;-4047493,6360113975;-4354290,237989473
707;-3832392,2893526442;-4046120,822980861;-4354290,237989473
708;-3832392,2893526442;-4051668,8196004936;-4354290,237989473
709;-3832392,2893526442;-4041945,639391765;-4354290,237989473
710;-3832392,2893526442;-4054077,879420666;-4354290,237989473
711;-3832392,2893526442;-4048858,899934296;-4354290,237989473
712;-3832392,2893526442;-4051075,078939094;-4354290,237989473
713;-3832392,2893526442;-4050617,474595582;-4354290,237989473
714;-3832392,2893526442;-4040765,707176604;-4354290,237989473
715;-3832392,2893526442;-4050159,87025207;-4354290,237989473
716;-3832392,2893526442;-4030392,0418089884;-4354290,237989473
717;-3832392,2893526442;-4023800,249292082;-4354290,237989473
718;-3832392,2893526442;-4008207,604438097;-4354290,237989473
719;-3832392,2893526442;-4006641,910592186;-4354290,237989473
720;-3832392,2893526442;-3997312,0411218447;-4354290,237989473
721;-3832392,2893526442;-3978523,7149709123;-4354290,237989473
722;-3832392,2893526442;-3977479,9190736385;-4354290,237989473
723;-3832392,2893526442;-3965476,266254987;-4354290,237989473
724;-3832392,2893526442;-3965476,266254987;-4354290,237989473
725;-3832392,2893526442;-3964954,3683063504;-4354290,237989473
726;-3832392,2893526442;-3965476,266254987;-4354290,237989473
727;-3832392,2893526442;-3959213,4908713433;-4354290,237989473
728;-3832392,2893526442;-3958169,694974069;-4354290,237989473
729;-3832392,2893526442;-3948775,531898603;-4354290,237989473
730;-3832392,2893526442;-3934162,3893367667;-4354290,237989473
731;-3832392,2893526442;-3931031,001644945;-4354290,237989473
732;-3832392,2893526442;-3925812,022158575;-4354290,237989473
733;-3832392,2893526442;-3933640,4913881295;-4354290,237989473
734;-3832392,2893526442;-3919549,2467749305;-4354290,237989473
735;-3832392,2893526442;-3917461,6549803824;-4354290,237989473
736;-3832392,2893526442;-3920071,1447235676;-4354290,237989473
737;-3832392,2893526442;-3916417,8590831086;-4354290,237989473
738;-3832392,2893526442;-3914330,2672885605;-4354290,237989473
739;-3832392,2893526442;-3910155,0836994643;-4354290,237989473
740;-3832392,2893526442;-3908067,4919049162;-4354290,237989473
741;-3832392,2893526442;-3909111,2878021905;-4354290,237989473
742;-3832392,2893526442;-3908067,4919049162;-4354290,237989473
743;-3832392,2893526442;-3910155,0836994643;-4354290,237989473
744;-3832392,2893526442;-3910676,9816481015;-4354290,237989473
745;-3832392,2893526442;-3907023,6960076424;-4354290,237989473
746;-3832392,2893526442;-3904936,1042130943;-4354290,237989473
747;-3832392,2893526442;-3899195,226778087;-4354290,237989473
748;-3832392,2893526442;-3895020,043188991;-4354290,237989473
749;-3832392,2893526442;-3894498,145240354;-4354290,237989473
750;-3832392,2893526442;-3892410,553445806;-4354290,237989473
751;-3832392,2893526442;-3891366,757548532;-4354290,237989473
752;-3832392,2893526442;-3893454,34934308;-4354290,237989473
753;-3832392,2893526442;-3885625,880113525;-4354290,237989473
754;-3832392,2893526442;-3893454,34934308;-4354290,237989473
755;-3832392,2893526442;-3887191,573959436;-4354290,237989473
756;-3832392,2893526442;-3900760,920623998;-4354290,237989473
757;-3832392,2893526442;-3902326,614469909;-4354290,237989473
758;-3832392,2893526442;-3905979,900110368;-4354290,237989473
759;-3832392,2893526442;-3908589,3898535534;-4354290,237989473
760;-3832392,2893526442;-3917983,5529290196;-4354290,237989473
761;-3832392,2893526442;-3924246,3283126634;-4354290,237989473
762;-3832392,2893526442;-3933640,4913881295;-4354290,237989473
763;-3832392,2893526442;-3931031,001644945;-4354290,237989473
764;-3832392,2893526442;-3929987,2057476705;-4354290,237989473
765;-3832392,2893526442;-3934162,3893367667;-4354290,237989473
766;-3832392,2893526442;-3941468,9606176848;-4354290,237989473
767;-3832392,2893526442;-3935206,185234041;-4354290,237989473
768;-3832392,2893526442;-3938337,572925863;-4354290,237989473
769;-3832392,2893526442;-3935728,0831826776;-4354290,237989473
770;-3832392,2893526442;-3925290,1242099376;-4354290,237989473
771;-3832392,2893526442;-3925812,022158575;-4354290,237989473
772;-3832392,2893526442;-3916939,7570317453;-4354290,237989473
773;-3832392,2893526442;-3913286,4713912862;-4354290,237989473
774;-3832392,2893526442;-3909111,2878021905;-4354290,237989473
775;-3832392,2893526442;-3910155,0836994643;-4354290,237989473
776;-3832392,2893526442;-3907545,593956279;-4354290,237989473
777;-3832392,2893526442;-3910155,0836994643;-4354290,237989473
778;-3832392,2893526442;-3907023,6960076424;-4354290,237989473
779;-3832392,2893526442;-3904414,206264457;-4354290,237989473
780;-3832392,2893526442;-3913286,4713912862;-4354290,237989473
781;-3832392,2893526442;-3905979,900110368;-4354290,237989473
782;-3832392,2893526442;-3908589,3898535534;-4354290,237989473
783;-3832392,2893526442;-3903370,4103671834;-4354290,237989473
784;-3832392,2893526442;-3905979,900110368;-4354290,237989473
785;-3832392,2893526442;-3903892,30831582;-4354290,237989473
786;-3832392,2893526442;-3899195,226778087;-4354290,237989473
787;-3832392,2893526442;-3905458,002161731;-4354290,237989473
788;-3832392,2893526442;-3906501,7980590053;-4354290,237989473
789;-3832392,2893526442;-3913808,3693399234;-4354290,237989473
790;-3832392,2893526442;-3916939,7570317453;-4354290,237989473
791;-3832392,2893526442;-3908589,3898535534;-4354290,237989473
792;-3832392,2893526442;-3915374,0631858343;-4354290,237989473
793;-3832392,2893526442;-3919549,2467749305;-4354290,237989473
794;-3832392,2893526442;-3921636,8385694786;-4354290,237989473
795;-3832392,2893526442;-3914852,165237197;-4354290,237989473
796;-3832392,2893526442;-3915374,0631858343;-4354290,237989473
797;-3832392,2893526442;-3907545,593956279;-4354290,237989473
798;-3832392,2893526442;-3902326,614469909;-4354290,237989473
799;-3832392,2893526442;-3912242,6754940124;-4354290,237989473
800;-3832392,2893526442;-3914852,165237197;-4354290,237989473
801;-3832392,2893526442;-3915374,0631858343;-4354290,237989473
802;-3832392,2893526442;-3904414,206264457;-4354290,237989473
803;-3832392,2893526442;-3908067,4919049162;-4354290,237989473
804;-3832392,2893526442;-3901804,716521272;-4354290,237989473
805;-3832392,2893526442;-3899195,226778087;-4354290,237989473
806;-3832392,2893526442;-3904936,1042130943;-4354290,237989473
807;-3832392,2893526442;-3902326,614469909;-4354290,237989473
808;-3832392,2893526442;-3896063,8390862653;-4354290,237989473
809;-3832392,2893526442;-3896585,737034902;-4354290,237989473
810;-3832392,2893526442;-3900239,022675361;-4354290,237989473
811;-3832392,2893526442;-3896063,8390862653;-4354290,237989473
812;-3832392,2893526442;-3894498,145240354;-4354290,237989473
813;-3832392,2893526442;-3895020,043188991;-4354290,237989473
814;-3832392,2893526442;-3900239,022675361;-4354290,237989473
815;-3832392,2893526442;-3900760,920623998;-4354290,237989473
816;-3832392,2893526442;-3902326,614469909;-4354290,237989473
817;-3832392,2893526442;-3908067,4919049162;-4354290,237989473
818;-3832392,2893526442;-3918505,450877656;-4354290,237989473
819;-3832392,2893526442;-3915895,9611344715;-4354290,237989473
820;-3832392,2893526442;-3915374,0631858343;-4354290,237989473
821;-3832392,2893526442;-3918505,450877656;-4354290,237989473
822;-3832392,2893526442;-3920071,1447235676;-4354290,237989473
823;-3832392,2893526442;-3915895,9611344715;-4354290,237989473
824;-3832392,2893526442;-3911720,7775453753;-4354290,237989473
825;-3832392,2893526442;-3923202,5324153895;-4354290,237989473
826;-3832392,2893526442;-3917983,5529290196;-4354290,237989473
827;-3832392,2893526442;-3913286,4713912862;-4354290,237989473
828;-3832392,2893526442;-3901282,8185726353;-4354290,237989473
829;-3832392,2893526442;-3896585,737034902;-4354290,237989473
830;-3832392,2893526442;-3887191,573959436;-4354290,237989473
831;-3832392,2893526442;-3889279,165753984;-4354290,237989473
832;-3832392,2893526442;-3880928,798575792;-4354290,237989473
833;-3832392,2893526442;-3877275,512935333;-4354290,237989473
834;-3832392,2893526442;-3879363,1047298806;-4354290,237989473
835;-3832392,2893526442;-3879885,0026785177;-4354290,237989473
836;-3832392,2893526442;-3875187,921140785;-4354290,237989473
837;-3832392,2893526442;-3867881,349859867;-4354290,237989473
838;-3832392,2893526442;-3860052,8806303116;-4354290,237989473
839;-3832392,2893526442;-3861096,6765275854;-4354290,237989473
840;-3832392,2893526442;-3864228,0642194077;-4354290,237989473
841;-3832392,2893526442;-3863706,1662707706;-4354290,237989473
842;-3832392,2893526442;-3867359,4519112296;-4354290,237989473
843;-3832392,2893526442;-3865271,8601166815;-4354290,237989473
844;-3832392,2893526442;-3859530,9826816744;-4354290,237989473
845;-3832392,2893526442;-3854833,9011439416;-4354290,237989473
846;-3832392,2893526442;-3854312,0031953044;-4354290,237989473
847;-3832392,2893526442;-3855355,7990925782;-4354290,237989473
848;-3832392,2893526442;-3849093,0237089344;-4354290,237989473
849;-3832392,2893526442;-3857443,3908871263;-4354290,237989473
850;-3832392,2893526442;-3860052,8806303116;-4354290,237989473
851;-3832392,2893526442;-3864228,0642194077;-4354290,237989473
852;-3832392,2893526442;-3861618,5744762225;-4354290,237989473
853;-3832392,2893526442;-3861096,6765275854;-4354290,237989473
854;-3832392,2893526442;-3868403,2478085035;-4354290,237989473
855;-3832392,2893526442;-3866315,6560139554;-4354290,237989473
856;-3832392,2893526442;-3867359,4519112296;-4354290,237989473
857;-3832392,2893526442;-3857443,3908871263;-4354290,237989473
858;-3832392,2893526442;-3851180,6155034825;-4354290,237989473
859;-3832392,2893526442;-3849614,921657571;-4354290,237989473
860;-3832392,2893526442;-3847527,3298630235;-4354290,237989473
861;-3832392,2893526442;-3848571,1257602973;-4354290,237989473
862;-3832392,2893526442;-3849093,0237089344;-4354290,237989473
863;-3832392,2893526442;-3847005,4319143863;-4354290,237989473
864;-3832392,2893526442;-3848571,1257602973;-4354290,237989473
865;-3832392,2893526442;-3851702,513452119;-4354290,237989473
866;-3832392,2893526442;-3844917,8401198382;-4354290,237989473
867;-3832392,2893526442;-3842308,350376653;-4354290,237989473
868;-3832392,2893526442;-3843874,0442225644;-4354290,237989473
869;-3832392,2893526442;-3842830,24832529;-4354290,237989473
870;-3832392,2893526442;-3843874,0442225644;-4354290,237989473
871;-3832392,2893526442;-3841786,4524280163;-4354290,237989473
872;-3832392,2893526442;-3838133,1667875573;-4354290,237989473
873;-3832392,2893526442;-3837611,26883892;-4354290,237989473
874;-3832392,2893526442;-3835523,677044372;-4354290,237989473
875;-3832392,2893526442;-3834479,8811470983;-4354290,237989473
876;-3832392,2893526442;-3833436,085249824;-4354290,237989473
877;-3832392,2893526442;-3832392,28935255;-3832392,2893526442
878;-3832392,2893526442;-3832392,28935255;-3832392,2893526442
879;-3832392,2893526442;-3832392,28935255;-3832392,2893526442
880;-3832392,2893526442;-3832392,28935255;-3832392,2893526442
881;-3832392,2893526442;-3832392,28935255;-3832392,2893526442
882;-3832392,2893526442;-3832392,28935255;-3832392,2893526442
883;-3832392,2893526442;-3832392,28935255;-3832392,2893526442
884;-3832392,2893526442;-3832392,28935255;-3832392,2893526442
885;-3832392,2893526442;-3832392,28935255;-3832392,2893526442
886;-3832392,2893526442;-3832392,28935255;-3832392,2893526442
887;-3832392,2893526442;-3832392,28935255;-3832392,2893526442
888;-3832392,2893526442;-3832392,28935255;-3832392,2893526442
889;-3832392,2893526442;-3832392,28935255;-3832392,2893526442
890;-3832392,2893526442;-3832392,28935255;-3832392,2893526442
891;-3832392,2893526442;-3832392,28935255;-3832392,2893526442
892;-3832392,2893526442;-3832392,28935255;-3832392,2893526442
893;-3832392,2893526442;-3832392,28935255;-3832392,2893526442
894;-3832392,2893526442;-3832392,28935255;-3832392,2893526442
895;-3832392,2893526442;-3832392,28935255;-3832392,2893526442
896;-3832392,2893526442;-3832392,28935255;-3832392,2893526442
897;-3832392,2893526442;-3832392,28935255;-3832392,2893526442
898;-3832392,2893526442;-3832392,28935255;-3832392,2893526442
899;-3832392,2893526442;-3832392,28935255;-3832392,2893526442
900;-3832392,2893526442;-3832392,28935255;-3832392,2893526442
901;-3832392,2893526442;-3832392,28935255;-3832392,2893526442
902;-3832392,2893526442;-3832392,28935255;-3832392,2893526442
903;-3832392,2893526442;-3832392,28935255;-3832392,2893526442
904;-3832392,2893526442;-3832392,28935255;-3832392,2893526442
905;-3832392,2893526442;-3832392,28935255;-3832392,2893526442
906;-3832392,2893526442;-3832392,28935255;-3832392,2893526442
907;-3832392,2893526442;-3832392,28935255;-3832392,2893526442
908;-3832392,2893526442;-3832392,28935255;-3832392,2893526442
909;-3832392,2893526442;-3832392,28935255;-3832392,2893526442
910;-3832392,2893526442;-3832392,28935255;-3832392,2893526442
911;-3832392,2893526442;-3832392,28935255;-3832392,2893526442
912;-3832392,2893526442;-3832392,28935255;-3832392,2893526442
913;-3832392,2893526442;-3832392,28935255;-3832392,2893526442
914;-3832392,2893526442;-3832392,28935255;-3832392,2893526442
915;-3832392,2893526442;-3832392,28935255;-3832392,2893526442
916;-3832392,2893526442;-3832392,28935255;-3832392,2893526442
917;-3832392,2893526442;-3832392,28935255;-3832392,2893526442
918;-3832392,2893526442;-3832392,28935255;-3832392,2893526442
919;-3832392,2893526442;-3832392,28935255;-3832392,2893526442
920;-3832392,2893526442;-3832392,28935255;-3832392,2893526442
921;-3832392,2893526442;-3832392,28935255;-3832392,2893526442
922;-3832392,2893526442;-3832392,28935255;-3832392,2893526442
923;-3832392,2893526442;-3832392,28935255;-3832392,2893526442
924;-3832392,2893526442;-3832392,28935255;-3832392,2893526442
925;-3832392,2893526442;-3832392,28935255;-3832392,2893526442
926;-3832392,2893526442;-3832392,28935255;-3832392,2893526442
927;-3832392,2893526442;-3832392,28935255;-3832392,2893526442
928;-3832392,2893526442;-3832392,28935255;-3832392,2893526442
929;-3832392,2893526442;-3832392,28935255;-3832392,2893526442
930;-3832392,2893526442;-3832392,28935255;-3832392,2893526442
931;-3832392,2893526442;-3832392,28935255;-3832392,2893526442
932;-3832392,2893526442;-3832392,28935255;-3832392,2893526442
933;-3832392,2893526442;-3832392,28935255;-3832392,2893526442
934;-3832392,2893526442;-3832392,28935255;-3832392,2893526442
935;-3832392,2893526442;-3832392,28935255;-3832392,2893526442
936;-3832392,2893526442;-3832392,28935255;-3832392,2893526442
937;-3832392,2893526442;-3832392,28935255;-3832392,2893526442
938;-3832392,2893526442;-3832392,28935255;-3832392,2893526442
939;-3832392,2893526442;-3832392,28935255;-3832392,2893526442
940;-3832392,2893526442;-3832392,28935255;-3832392,2893526442
941;-3832392,2893526442;-3832392,28935255;-3832392,2893526442
942;-3832392,2893526442;-3832392,28935255;-3832392,2893526442
943;-3832392,2893526442;-3832392,28935255;-3832392,2893526442
944;-3832392,2893526442;-3832392,28935255;-3832392,2893526442
945;-3832392,2893526442;-3832392,28935255;-3832392,2893526442
946;-3832392,2893526442;-3832392,28935255;-3832392,2893526442
947;-3832392,2893526442;-3832392,28935255;-3832392,2893526442
948;-3832392,2893526442;-3832392,28935255;-3832392,2893526442
949;-3832392,2893526442;-3832392,28935255;-3832392,2893526442
950;-3832392,2893526442;-3832392,28935255;-3832392,2893526442
951;-3832392,2893526442;-3832392,28935255;-3832392,2893526442
952;-3832392,2893526442;-3832392,28935255;-3832392,2893526442
953;-3832392,2893526442;-3832392,28935255;-3832392,2893526442
954;-3832392,2893526442;-3832392,28935255;-3832392,2893526442
955;-3832392,2893526442;-3832392,28935255;-3832392,2893526442
956;-3832392,2893526442;-3832392,28935255;-3832392,2893526442
957;-3832392,2893526442;-3832392,28935255;-3832392,2893526442
958;-3832392,2893526442;-3832392,28935255;-3832392,2893526442
959;-3832392,2893526442;-3832392,28935255;-3832392,2893526442
960;-3832392,2893526442;-3832392,28935255;-3832392,2893526442
961;-3832392,2893526442;-3832392,28935255;-3832392,2893526442
962;-3832392,2893526442;-3832392,28935255;-3832392,2893526442
963;-3832392,2893526442;-3832392,28935255;-3832392,2893526442
964;-3832392,2893526442;-3832392,28935255;-3832392,2893526442
965;-3832392,2893526442;-3832392,28935255;-3832392,2893526442
966;-3832392,2893526442;-3832392,28935255;-3832392,2893526442
967;-3832392,2893526442;-3832392,28935255;-3832392,2893526442
968;-3832392,2893526442;-3832392,28935255;-3832392,2893526442
969;-3832392,2893526442;-3832392,28935255;-3832392,2893526442
970;-3832392,2893526442;-3832392,28935255;-3832392,2893526442
971;-3832392,2893526442;-3832392,28935255;-3832392,2893526442
972;-3832392,2893526442;-3832392,28935255;-3832392,2893526442
973;-3832392,2893526442;-3832392,28935255;-3832392,2893526442
974;-3832392,2893526442;-3832392,28935255;-3832392,2893526442
975;-3832392,2893526442;-3832392,28935255;-3832392,2893526442
976;-3832392,2893526442;-3832392,28935255;-3832392,2893526442
977;-3832392,2893526442;-3832392,28935255;-3832392,2893526442
978;-3832392,2893526442;-3832392,28935255;-3832392,2893526442
979;-3832392,2893526442;-3832392,28935255;-3832392,2893526442
980;-3832392,2893526442;-3832392,28935255;-3832392,2893526442
981;-3832392,2893526442;-3832392,28935255;-3832392,2893526442
982;-3832392,2893526442;-3832392,28935255;-3832392,2893526442
983;-3832392,2893526442;-3832392,28935255;-3832392,2893526442
984;-3832392,2893526442;-3832392,28935255;-3832392,2893526442
985;-3832392,2893526442;-3832392,28935255;-3832392,2893526442
986;-3832392,2893526442;-3832392,28935255;-3832392,2893526442
987;-3832392,2893526442;-3832392,28935255;-3832392,2893526442
988;-3832392,2893526442;-3832392,28935255;-3832392,2893526442
989;-3832392,2893526442;-3832392,28935255;-3832392,2893526442
990;-3832392,2893526442;-3832392,28935255;-3832392,2893526442
991;-3832392,2893526442;-3832392,28935255;-3832392,2893526442
992;-3832392,2893526442;-3832392,28935255;-3832392,2893526442
993;-3832392,2893526442;-3832392,28935255;-3832392,2893526442
994;-3832392,2893526442;-3832392,28935255;-3832392,2893526442
995;-3832392,2893526442;-3832392,28935255;-3832392,2893526442
996;-3832392,2893526442;-3832392,28935255;-3832392,2893526442
997;-3832392,2893526442;-3832392,28935255;-3832392,2893526442
998;-3832392,2893526442;-3832392,28935255;-3832392,2893526442
999;-3832392,2893526442;-3832392,28935255;-3832392,2893526442
1000;-3832392,2893526442;-3832392,28935255;-3832392,2893526442
